2e695102
112c0158
3c10a61
8000222
2f275bc1
c000359
c000367
2a503fcc
80002ad
8000266
37bcf784
336ede0
16cd015f
84a540
281c12a
16aab27
113eaa7
1604003e
460007f
691030a
1ffd063
101c180
24cc9e7
5d1031f
2ffe620
2afa160
278b805d
30f3ef67
354cec2
dd2343
17f40328
d52265
ad567de3
2e7cda7
5d0028f
8f7631a1
1e10de3
1daea
8d3a6844
401034d
6110315
651011f
66101e3
185d8e2
19d10347
531021a
128e0039
30a2124
48000c2
3fd4aa1
1a3cca3
2722e2a
12a53e3
32099cb0
3bb7ca1
4400288
113856b
2b9a97b1
17f5a60
119200a5
15c4009e
3a237bb0
39bf85d1
18ec0164
2afdce3
247b1c1c
2cf754ea
1d923c3
197502a5
1a4300a7
6300225
6200147
8000060
301a6761
37c9326
235a942
1bf5167
ba7ea7
8000015
5d00055
3145523
23dd5cc1
81dbeb
2362ee2
30dad67
a3a864
2204ae3
1c15c03
2861e0
22f48b59
1666e27
18a162a
3c118a4
27ee400
1fe30133
2c6ee29a
314931da
101a02c5
40101a9
1d5a0173
8000004
c000128
2803a199
8000075
32e6f0be
800028d
1715a24
363bf27
800002c
13cd5a5
233fc56f
80002fc
29cd766
30d33fb4
8000161
298f002
4100203
1c44ce4
2249e64c
1554064
3493a22
800007d
8000087
1b7f0172
17614e5
8000088
2ac42d46
27fd1e1
39ee543
10b20310
6a000e0
3cb8e23
8000019
80002d6
26d6340
13ce00f5
19a20072
75001a3
1fd10299
ec5500
38f1806e
1d76c26
21274cd0
36b92a2
1dff008d
3abfee1
260c12b
12ad00ee
18b1013b
299ef23
8ec87656
29a4bb12
369633c2
4d1021f
1ebe02e1
35be7264
bb7023
35d74163
1c49baa
1e73ac2
3766b0e4
23de3a0
2313bcf8
27b2de4
12180a3
2acb1ae0
3409d6ac
298b9c0
2ebccc3e
2863e16d
8d754e4e
4700218
80000b7
971ca4
12b0de5
3351b57a
169bcc0
ad053dcb
5e0003f
116b767
601021a
ac27fcb1
16c2360
164600ac
268e7a5
3f56ea1
ce18eb
4910017
16dc009d
1389012e
80000c8
11f0421
3be2ec12
29efe5f3
23ea9cd2
8c794b3e
1d366e3
8000185
2d8368af
217902b7
19c50247
104d00f9
31aa067
17bef61
ad7a738d
1f721a0
1edd01c2
8fe73b84
5e00038
250c6a6
80000d7
80000be
c000247
1329500
80000e0
24f1440
50101f1
800022b
34bbb2a
25cade1
2e204a9c
168402ce
138902a
1f5a0276
3705d01b
3908ea
12d60099
6110248
2c64042
22870a8e
7c86e1
b3cd66
166501ff
3042ae2
34eac9fc
1c6ec20
6b1017a
7d102cc
4b00271
34fa722
ad7f6e10
1e85014b
80003b4
25649323
8d15111a
c00006f
16eabab
3397a237
2bef322
afe44724
5010194
5b001c1
31f397da
afd2261f
32d296a
8000103
8000066
3f78c62
2bb7b2ac
248bada8
72101da
1dd400cb
31bc1b9c
2f17b24
384d5e7
7910109
1a820194
17b6011b
38e2f21
323ca26
8000114
1ac9840
173272a
c000102
185e01d5
8000129
c00035a
b327a4
5d6ba1
800011c
1e478a7
800036d
90ef2b
8000122
32e64666
80000f1
8000093
80003bf
480fff2
11b83e1
650022f
188eff06
800002b
80002c2
c40f23
33df42dc
31b4282
2cf7fab
26f6002
1ae5220
571026a
16d4018b
800035b
c000333
25623da8
4bd0e5
12f2ce5
8000020
2b2d26
22c93001
8000006
c00007c
3557af68
3271662
138aea7
20362422
6a0013d
4b10214
1193c62
2ad7203
2d359d14
65101e0
366995eb
4d00253
8ab425
1dcd9c2
8000152
2342512f
3703d6ad
2c29db35
c86fe1
3bee92a2
20b8443
25186137
141000e3
2e036a1
1ab00131
62101b1
1bcb01af
2061083
8fce40c9
3726c83
27ae2280
2ec3943
8000169
2837893b
e33624
29648a2b
281ab40
80000bf
2aea056e
37162cdf
278a580
1a17ffbc
12e0d64
396606b
4f10075
3c2ba67
2c22aa9e
800016f
800000d
2006f1ce
8000275
5c000e5
3156a23
c8242a
3a96d42
a9aa00
11c56a5
3a9b3e08
3f19b42
5410068
8e4b12b3
5800122
229d824
2f3a10af
d178c0
8000182
2d4b1ca0
3dd38a3
5fcfc3
1b2401fe
3947e8b7
212e1a0
800018c
29e6161
2892aec4
78100a9
18d2123
33ed80
1708326
1dc70188
2453ae7
36e2641a
25222b4f
2150f13b
20d1ce0
27f5164
800019e
21d87c0
30e5d2a
345d467
24cb4987
2471200
24f24f15
282b2e7
ac27676a
3afc56a
26f1827
15a4feac
3730aab
4b00148
26e9fa1
80001a3
1b250065
20ce720
80001aa
2e06820
356dbde7
9c3303
34a0bab
4d1ff05
4eee2b
38426d86
2bb0c26
80001b2
3129740d
7d0ffab
1c4cff8c
1752ff6c
8dff7de7
80001b9
3770e61
98e4e6
3976c8ea
1ace00b9
162dfec7
21f4b269
6100122
38eb9d74
348f3de8
3bdb5929
80001c5
93b5a7
1bf70092
3a2ad5a7
1ec1ff95
8000009
8000370
6b1006d
3aa8a023
7c3921
3610a24
82f8e5
33afae4
dce542
6400039
280cf2b
35926a1
80001d2
80000e5
c0001c4
160f7e7
80001d6
2d713905
8000319
10c2663
80001db
39d730fe
3380c22
5e1011e
24cb8cd2
38ef7a7
80001df
15770073
d6a643
3192ea2
2b11ec3
299be1
2bb13bcd
5200178
146db00
80001eb
1133625
13a09eb
1a6621
731feeb
2c21642
2d796b36
3f8be7
15bc3a3
80001fa
2901cada
33f612a
30c5ba7
25ae2a3
2e65ba7
258b7c3
10732a0
200bd5d0
800007e
1020005e
8f5a42
69000b2
8fe34dac
31591e5
287f340
38f5ea0
532880
39650bb3
34ca6c3
6700197
c00021a
7100115
15ed27
2abe540
13090150
28f38a2
80000ba
3d0dd03
8000064
8f847b2f
b857e3
19977c3
8bba23
1558b2b
18f4009b
8ef35fa5
1c7a863
20d85a7
22491def
800010c
651ffb9
6f10158
168e9e4
8c374b9b
259d922
2434962
3d7443
8000225
237c160
337abe5
8000067
149cba5
179afeb4
b7486a
800021b
c000013
2dbc1f22
147a0aa
179000d6
32fecfb1
2bd9a0aa
8000236
800000a
800006a
8c487020
80001c6
1c9ffeee
1083a03
8000242
7a0fe5c
ea6ee1
2619fb2c
8e33762d
3a354a3
1e4a2e5
6e0005e
1e240001
2ff3d6a
1b1d0161
8e813c81
2086b00
17450a3
1162242
8000249
660ffd5
8000282
21aca6ec
2de9f138
2ec4f02
3cc6e23
8000250
1065ff80
1a8c012d
23d8ea6
8000253
620ff4f
4fabea
3b7e300
3670e25
16990122
8000276
675740
12420145
27db561d
3831436e
13f7fde6
76cfa1
21c3dc0
aee552e3
21c0c3ae
33d32a0
721ff69
2b066c0
1d77ffc6
8000029
606526
360580
1288ff7e
711fea5
8ea11bf9
2898561
1d83927
a106a4
37e1aa6
3de4e22
797ce5
370598dc
1caa0003
1621ffda
8000331
8000072
b5a83
3a6a3c3
1c26b6b
389e6542
15be5e5
33e72e50
7510025
35be582
29407cdb
121dbe3
1509f64
8000283
8000116
8ead3d5d
e9332a
750011b
800029a
33aae4cd
1bff080
f93a22
3139b25
36609c7d
80000f0
20c2b2d0
af8a3381
ad833be6
8000007
2033712c
c000132
8dca17d6
2fda36b
5bdd23
34aa5a37
2adbd955
711ff1a
1b8a0107
201dd82
800029e
1474fff6
8cd775ad
1b21d23
35e6461
80002a4
2331de7
6d100c1
3d4ef64
2d7d13ac
80002a8
80003b1
19ab9a6
80002ae
adb7a4
20d4762
8000206
c00011a
14ffd61
80002ba
afacd837
1105ff6e
120dd20
1598161
2fc49e0
34488c3
23a9761
1c2bbe1
157b065
144efdb2
15e1967
80002c5
1ace322
2c41aeb
800013b
8cdd4398
80000fe
8000039
8e493179
aa3a27
1a19fe75
2aa01621
80002c8
6b1fec0
8c484a8f
3ff6120
3a0043
80002d7
286be1d6
22a7cd4c
7700060
500001a
8000063
27db627
ad0a5ccc
e9c3c0
1d0efe1d
8000041
c0000f5
3a3ad9e5
44b967
2cce525
3401abed
2af4f3d1
80002e5
38d3cb3b
c3dce3
2aa2592b
80001bb
8000107
3b86366
2805f82
8000368
2256d323
15e60095
80002f2
2f58fe4
80001a0
334bf80
640ff48
510ffdc
f03e2
3c960ea
e9e65
8000117
4d1febc
3428ee5
11940004
23fac22
2648702
13578a5
11c6065
8000300
27ef7f9a
10c4ff6f
8000068
2646d64b
23703c3
2022c24
c0002a7
5d9082
150a001f
4700068
3e1a603
800022e
8000155
3872c30a
1b514a2
1fb992b
28d3166
1115fe92
184d24
22948c4d
bd67a0
aebe3307
9629eb
80000e6
87cac2
80000cb
f99d66
2adda60
1bb0ac2
301e9aa
800009d
80003b7
24a83a6
8000322
3ce2c63
18e5ff0a
29cf4bf6
c0001d1
4210015
540007c
29372c3
8000329
8000145
13d622b
800008d
741fdb0
9e7160
339cca2
206d8257
19ba0015
3b29ba2
1f8affd6
411ffd6
3284986e
8000344
1851d24
10ea923
37de52da
800022a
8000302
390a8aa
12a9aa0
751fd8d
1d318a3
3a851513
470fefa
140ab61
ac89a099
1445fe8e
2d96f0a5
1670ff30
11e9d22
9dadeb
140b165
8000353
2cf646e8
2f0ee29f
206c76b
f725eb
2043ee5
2badde4
352a20
307503e7
7e5682
35cf243
1454fde0
200d682c
eda400
1dbbe2
14be004b
5a10021
8000374
800016d
80002e2
3297b586
8000363
3c26f61
16ef6a5
740ff18
1c06fffa
80001e5
1d4cff8e
307cc1ac
8000373
31af5565
800027d
c0000f8
1148fdd6
480fce2
80000c1
1ec4ffec
800031a
17fbda2
c000205
307452c3
2016c6b
c000232
1f8affe4
16e70046
12e0e83
374a992e
401fe80
26805c3
431fdb6
33a30eb
8000399
80000ef
8da16d99
1748ff47
a078e6
dcbc23
32478a1
26ad865
32956f1c
11f6ffa3
343f4e5
1a4356a
8fd64b16
158ad80
125b8e2
8c861ea9
3873c25
3a88161
220f92a4
1004fec6
30407306
c3baeb
7e0ffb3
21df4d95
35481c0
2438a78c
21305285
3aff0c2
5b0ffa6
11bbbe0
800039e
190b320
8f8350fc
591ff0c
32182fa8
241750d5
411fd53
8000357
598727
27a9683
2fc24e1
33dfa5cd
fd986b
30aaf2b
30a8c2
29b622a
1184ff4a
a29642
80000fd
12c7fef3
1062262
800003e
600fe43
14e0660
1a57fd5d
6e0ffc0
278dce0
80003c3
1ead780
295d800
80001bf
800037b
2c32ffdc
14a3fec9
3220666
6b1fe35
2cef2568
c000137
1146e42
3d7bbea
2bc3e2b
db1c2a
1d007e6
287dd24
3f9f240
2d714a7
a4a940
33fab65
1c005c3
35102a4
2df1fa7
21db860
1f5a1a5
45f7a1
301b67
233383
1c03fc0
2402000a
c
