2e695102
112c0158
431000d
2fd454f0
26142d41
236b48b1
39c2b6aa
14020250
167901d7
20331a6e
adfe4fd6
ada96981
72001e1
2af37e9e
43101a9
8000012
8ccc5a32
1bc200a8
1815026e
22c5b681
1c280004
287bac76
378673d3
aca67561
359913de
3259c039
5810123
ac124acc
ade13f0d
8f3a4dba
3817d39d
1f550203
1ee5031d
16920119
af316e6c
3b8f7e1b
1c8001c2
afdf3d96
1a260294
800002c
6510333
2cff7bb6
18da000b
1e5c00b5
36bbe78d
265d54db
323b0418
2b0e1009
2914f30c
13a102cb
2fe126d9
1cc401df
8000038
8000008
7d1001f
1ba8006e
376016d3
800003d
2c5f8da3
5c10019
22c8d274
af2c765e
31738c2f
2e71cdfd
218b18c0
2b7a8af9
35dd1369
af6c6ddb
223259b5
190901f5
23169fb7
6c001e9
33d43dbc
11060044
237f3bdf
11e6030a
303656c7
27b8ff42
7200284
5d102e0
2ea6ec94
1be5016a
305dd3ed
4c101cc
5d10208
34fa89f9
317cac4e
4b0011a
4d000b4
2a32d097
8c4845c3
1c760286
1bab0309
7d102e1
2b1080bb
2756c53d
6f1000e
153e0281
2e09a18a
4700165
37316ce2
7e10276
15ef032f
12e10348
2e33ae26
195800fc
29980357
23af26af
1b0502ad
4310042
8000077
5c0014b
120c0083
3a0c770b
8000063
2e7964f7
4110324
195c003d
afdf29f0
69101e1
ae5d1f42
7c10044
19bb0135
6310030
8ee88ad8
1e57030d
8c42d2a3
7e0022b
345f8293
36fceac6
127a0070
3ac510ef
4610304
213fb2f0
10e00135
3b6cde29
ae99785b
51102db
366610f6
8f276e23
13370304
8000093
23e3db73
1bd302a7
225be585
23430673
2704cf85
114c0137
6b00049
3b68c9b7
125c0321
10160268
7b101ad
7d00211
6700188
285dc542
80000a5
8000047
3004dbf3
ac4d4e71
276dfd29
791002a
13a50092
39cc727d
8df00d84
521025d
55000d5
12dc0117
299003da
3a0b3cb9
2a228196
80000b0
16dffff0
17b502a6
5910112
32b4293a
15c80129
27570181
12230174
4900046
60101ae
2b6d0c6f
80000bb
6a1ffba
29033c99
ac3f6eb0
19860059
32edeac5
80000c5
10a002c6
35fcbeab
316dcbcf
258ae1e5
7f102eb
228247a6
38a1b5c5
80000ca
27376794
5710185
ac665f18
4a10202
18cb0023
44001f1
80000db
760000b
385c5b51
254dd165
7e1ff55
adcdfdfa
2bcc9f3d
2f3bf155
241ff14e
8000013
36e55a4e
177c0275
385f0e63
2636d430
369904ab
4410131
26503cee
3ad1dbe3
80000e8
35956455
30e35e17
231dbf2f
1848ff95
1f5c00f8
731013d
8e07d78e
ad6a2add
3340ad81
184c0045
21013848
2e772baf
3b21dd27
8f6ef0f8
78101da
1762019e
296d2601
127b020e
358dfe98
29dd9d80
1f420245
8000025
1f0f01c6
39fbe7b1
1f7d0094
22bb9c22
690ff9a
750ffa1
27c3b6db
8d6173c3
146cff13
1376000c
20629023
3071a3fc
6110290
5f10211
3b41f848
10ad014b
8000022
ad5f973b
2ec43fdb
2b2c6a03
2dd93ea8
2127eece
781014b
800007a
1d91004e
26288247
174cfffc
780016f
1bcbffcb
217098f7
37d5d2f6
3635b156
4e101dd
39d576c2
17e7012e
3a8de593
1f320180
80000aa
149f00e5
491ffd3
80000cc
2854a06d
193fff39
511fee0
ae961902
30ec966c
1d4f01a7
4700063
1f07002f
1e80feb9
6b1fed6
800009c
5c001ba
5e0febc
2c87af0e
2707b030
1a0b00b6
4e0ff7c
28ae0b25
32665988
27057100
156eff7f
2621521a
2ebd48d6
af001880
21e233e4
6e101b0
26ef5cd8
59000d6
1f640097
2b690a47
8cd44f82
550005a
16a40182
264e85ea
2ced1cf9
1613ff72
3a82c5f1
372a1b6a
80000b4
3ada3321
199eff6e
5e0fec7
2fd39848
31bc53df
23e974ed
1723000c
acca59bc
36ca919e
31094b00
481fedf
152a0114
1074ff8f
22c6e2a7
2212d1ef
1b8dfee5
510018a
8000068
1a87ff1d
6c0012c
2dba35d8
243e24a9
1c69ff8e
6a001a2
26ca7208
16b9fff1
8000060
5a0fe6e
80000b2
5110063
1c83015d
560fe62
132c00c1
2ef12f87
3b6b1f86
800007f
2ad27b66
204d8d8c
164f0172
3981818c
2ebd851b
6110170
6c1ff96
19d1ff10
32bbd2ea
8000049
334b77ac
1bfc0016
19a0010f
203d825d
af55f3e0
18b50064
3921f8d6
2045915f
8d3e30a9
165dffef
1c560000
2c9fce03
2677d24f
3a65805c
80000b7
1d2cfddd
68000ba
1cf3feeb
36dd994a
6410104
17c80108
33a3d18d
80000b8
640ffbf
6d0ff6c
4c0fea9
329e3937
2be8212c
17b60040
284748d6
5e0ff03
1bd2007c
ae6a3350
296f4175
800002d
2db32913
5c0ffb4
1c660002
124dfe03
6c0005f
1700fdde
35e4c8d8
661002c
740ff6d
471fe2a
355c12c3
243b38f5
771fef8
28710fa4
246e71a6
1302ff69
3335036e
1a23fef3
17760033
8c697d4f
800001b
147b00bd
2402000a
c
25aa2b7b
3a1b8bbe
531fec5
382fed6b
3468da6d
39f06bb2
22669ab4
34664f57
5510044
2414a196
8f9832ae
8fb37cf2
2162c8b9
8d6f5a96
12bbfe0f
2ac31105
aea25d50
1459fe94
23009d36
29f55522
3a9e42d9
8ecc37cc
2f449588
2012f560
1e59ffd1
336eeef8
1b8a005a
1f340072
6d1ff99
1bbcfff5
20499872
34c798f9
3a719961
80000a9
8ec81917
1adeff5d
2e725abc
30cd182a
2664a0cb
8e2f186f
2fbb67be
2f0f317d
1d38fe89
420fdf9
3b0d4315
2703669b
611ff00
690fe88
27a49572
500fd53
551fedc
3aa46dca
8000051
adcde820
581ff50
7f0fdc3
341fb2c5
31d7473d
3138e1e8
8000009
2ff104ef
651ff85
30e411e0
258cc467
8000021
601fee0
610fdbc
7a1fed1
2ea6e599
30979fec
30a25c93
540fee0
1548fe2c
1a670064
34ac7ec8
80000df
80000b1
600fdbd
1acfffd9
7d0fe63
8000003
108cfd00
7e1fdc4
2ebf6897
2937908c
20688af4
8000064
286c81af
221c9d0b
1b94fd71
8000081
3bb20888
3a1077d0
2483e86e
19c9fcf9
581ffb5
ad5b95a7
28e86eb9
5d1fd97
640fe6d
371a32ce
1ed2fdd6
1689fe26
4b0ff85
16aefd2c
601fd04
8d05a9f8
26ec1f00
25377627
2948f724
800007c
2db6fc37
242c8bd6
333447e3
6f1fc71
14f1ffa2
