0
4
8
c
10
14
18
1c
20
24
28
2c
30
34
38
3c
40
44
48
4c
50
54
58
5c
60
64
68
6c
70
74
78
7c
80
84
88
8c
90
94
98
9c
a0
a8
ac
b0
b4
b8
bc
c0
c4
c8
cc
d0
d4
d8
dc
e0
e4
e8
ec
f0
f4
f8
fc
100
104
108
10c
110
114
118
11c
120
124
128
12c
130
134
138
13c
140
144
148
14c
150
158
15c
160
164
168
16c
170
174
178
17c
180
184
188
18c
190
194
198
19c
1a0
1a4
1a8
1ac
1b0
1b4
1b8
1bc
1c0
1c4
1c8
1cc
1d0
1d4
1d8
1dc
1e0
1e4
1e8
1ec
1f0
1f8
1fc
200
204
208
20c
210
214
218
21c
220
224
228
22c
230
234
238
23c
240
244
248
24c
250
254
258
25c
260
264
268
26c
270
274
278
27c
280
284
288
28c
290
294
298
29c
2a0
2a4
2a8
2ac
2b0
2b4
2b8
2bc
2c0
2c4
2c8
2cc
2d0
2d4
2d8
2dc
2e0
2e4
2e8
2ec
2f0
2f4
2f8
2fc
300
304
308
30c
310
314
318
31c
320
324
328
32c
330
334
338
33c
340
344
348
350
354
358
35c
360
364
368
36c
370
374
378
37c
380
384
388
38c
390
394
398
39c
3a0
3a4
3a8
3ac
3b0
3b4
3b8
3bc
3c0
3f4
430
434
438
43c
440
444
448
44c
450
488
48c
490
494
498
49c
4a8
4ac
4b0
4b4
4d8
4ec
4f0
4f4
4f8
4fc
500
504
508
50c
520
524
52c
530
540
544
548
54c
550
554
5ec
5f0
5fc
600
604
608
658
65c
660
664
668
66c
670
674
67c
688
698
69c
6a0
6a4
6a8
6ac
6b0
6b4
6c8
6cc
6d0
6d4
6d8
6dc
6e0
6e4
6e8
6ec
710
714
718
71c
720
724
748
758
75c
760
774
778
77c
780
784
79c
7a0
7a4
7a8
7ac
7c4
7c8
7cc
7d0
7e0
80c
810
814
818
81c
82c
830
840
844
848
84c
860
864
868
884
888
890
894
8b0
8b4
8b8
8bc
8c0
8c4
8c8
8cc
8d0
8d4
8d8
8dc
8e0
8e4
8e8
8ec
8f0
8f4
8f8
924
928
92c
93c
940
944
948
94c
950
954
958
95c
960
96c
970
97c
980
990
998
99c
9a0
9a4
a04
a08
a0c
a10
a24
a28
a2c
a30
a34
a38
a3c
a40
a44
a48
a4c
a50
a54
a58
a70
a74
aac
ab0
ab4
ac0
ac4
ac8
acc
ad0
b04
b0c
b10
b14
b2c
b30
b38
b3c
b40
b78
b7c
b80
b84
b88
b8c
b94
b98
b9c
ba0
ba4
ba8
bac
bb0
bb4
bd4
bd8
bdc
be0
be4
be8
bec
bf0
bf4
c18
c1c
c20
c24
c28
c2c
c30
c34
c38
c3c
c40
c44
c48
c4c
c50
c54
c60
ca0
ca4
ca8
cac
cb0
cb4
cb8
cc4
cc8
ccc
cd0
cd4
cd8
cdc
ce0
ce4
ce8
cec
cf8
cfc
d00
d04
d14
d18
d20
d24
d28
d2c
d38
d40
d54
d58
d5c
d60
d64
d68
d6c
d70
d74
d84
d88
d8c
d90
d94
d98
d9c
db0
db4
db8
dbc
dc0
dc4
dc8
dcc
dd0
e0c
e38
e3c
e40
e48
e6c
e70
ec0
ec4
ec8
ecc
ed0
ed4
ed8
edc
ee0
ef8
