0
4
c
10
14
18
1c
20
24
48
4c
94
c8
d0
198
19c
1a8
1bc
1c0
1c8
1e4
1f0
214
218
21c
248
268
2a8
2ec
304
35c
3a4
3b0
3d4
3e0
3e8
3f0
3f4
3f8
400
408
440
454
458
464
468
47c
490
4a0
4c0
4c8
4d8
4dc
4f4
508
584
5b4
5fc
600
608
614
630
6a0
6fc
710
72c
744
7c0
814
818
844
868
888
8a8
8c8
8e8
8fc
91c
998
9d4
a08
a34
a9c
ab4
b08
b30
b58
b88
bf0
c64
ccc
d28
d30
d64
d68
d6c
d9c
da0
db4
dc0
dec
e28
e2c
e80
e88
ea8
ec4
edc
efc
